<?xml version="1.0" encoding="UTF-8"?>
<svg width="25px" height="23px" viewBox="0 0 25 23" version="1.1" xmlns="http://www.w3.org/2000/svg" xmlns:xlink="http://www.w3.org/1999/xlink">
    <!-- Generator: Sketch 48.2 (47327) - http://www.bohemiancoding.com/sketch -->
    <title>Group 3</title>
    <desc>Created with Sketch.</desc>
    <defs>
        <polygon id="path-1" points="0 4.70977196 0 9.41953812 11.8852459 9.41953812 11.8852459 4.70977196 11.8852459 5.79535495e-06 0 5.79535495e-06"></polygon>
    </defs>
    <g id="clearlink_blog_post" stroke="none" stroke-width="1" fill="none" fill-rule="evenodd" transform="translate(-652.000000, -1809.000000)">
        <g id="Group-3" transform="translate(651.000000, 1809.000000)">
            <path d="M23.7954392,9.6409378 L25.7066685,11.5521672 L23.7743906,13.4844451 C22.8361445,18.8900104 18.1316156,23 12.4691999,23 C6.13150603,23 0.993790046,17.8512746 0.993790046,11.5 C0.993790046,5.14872538 6.13150603,0 12.4691999,0 C18.1753154,0 22.908702,4.17367223 23.7954392,9.6409378 Z" id="Combined-Shape" fill="#383D43" transform="translate(13.350229, 11.500000) scale(-1, 1) translate(-13.350229, -11.500000) "></path>
            <g id="Page-1" transform="translate(8.786885, 6.982143)">
                <mask id="mask-2" fill="white">
                    <use xlink:href="#path-1"></use>
                </mask>
                <g id="Clip-2"></g>
                <path d="M11.8852459,1.11503209 C11.4479877,1.30419247 10.9779857,1.43198005 10.4848074,1.48946997 C10.9881475,1.19518185 11.374834,0.729177355 11.556916,0.173866444 C11.0857254,0.446364034 10.5639037,0.644275405 10.0084467,0.750909936 C9.56370082,0.288730379 8.92997951,5.79535495e-06 8.22863115,5.79535495e-06 C6.88203279,5.79535495e-06 5.79019467,1.06467045 5.79019467,2.37789789 C5.79019467,2.5642765 5.81176639,2.74578702 5.85336475,2.91982153 C3.82681148,2.820663 2.03005943,1.87393382 0.82745082,0.435236952 C0.617557377,0.786435462 0.497278689,1.19489208 0.497278689,1.63070277 C0.497278689,2.4557295 0.927762295,3.18356813 1.58204508,3.6100483 C1.18234426,3.59764624 0.806354508,3.49072194 0.477608607,3.31257273 C0.477370902,3.32254074 0.477370902,3.3324508 0.477370902,3.34253472 C0.477370902,4.49465128 1.31789549,5.45569499 2.43338525,5.67423783 C2.22878074,5.7285403 2.01336066,5.75763299 1.7909877,5.75763299 C1.63386475,5.75763299 1.48107992,5.74273892 1.33215779,5.71497917 C1.64248156,6.65967998 2.54296721,7.3472409 3.61002459,7.36636557 C2.77550205,8.00420233 1.7241332,8.38437762 0.581663934,8.38437762 C0.384844262,8.38437762 0.190758197,8.37307668 0,8.35105433 C1.0791209,9.0258075 2.36082582,9.41954392 3.73785041,9.41954392 C8.22292623,9.41954392 10.675625,5.79599824 10.675625,2.65364087 C10.675625,2.55054151 10.6731885,2.44796373 10.6684939,2.34596548 C11.1449734,2.0107042 11.5583422,1.59193185 11.8852459,1.11503209" id="Fill-1" fill="#FFFFFF" mask="url(#mask-2)"></path>
            </g>
        </g>
    </g>
</svg>